extensions/waveform-viewer-voltai/artifacts/pages_build/atxmega256a3u-bmda-jtag_short.vcd
$date 2024-02-08 20:12:15.292382 $end
$timescale 1 ns $end
$scope module  $end
$var wire 1 ! tck $end
$var wire 1 " tms $end
$var wire 1 # tdi $end
$var wire 1 $ tdo $end
$var wire 1 % srst $end
$upscope $end
$enddefinitions $end
#0
$dumpvars
1!
0"
1#
1$
1%
$end
#1
1"
#2
0#
#4
0!
#5
1!
#6
0!
#7
1!
#8
0!
#9
1!
#10
0!
#11
1!
#12
0!
#13
1!
#14
0!
#15
1!
#16
0!
#17
1!
#18
0!
#19
1!
#20
0!
#21
1!
#22
0!
#23
1!
#24
0!
#25
1!
#26
0!
#27
1!
#28
0!
#29
1!
#30
0!
#31
1!
#32
0!
#33
1!
0"
1#
#34
0!
#35
1!
#36
0!
#37
1"
#38
1!
#39
0!
#40
1!
#41
0!
#42
1!
#43
0!
#44
1!
#45
0!
#46
0"
#47
1!
#48
0!
#49
1!
#50
0!
#51
1"
#52
1!
#53
0!
#54
1!
#55
0!
#56
1!
#57
0!
#58
0"
#59
1!
#60
0!
#61
1!
#62
0!
#63
1"
#64
1!
#65
0!
#66
1!
#67
0!
#68
1!
#69
0!
#70
1!
#71
0!
#72
1!
#73
0!
#74
1!
#75
0!
#76
1!
#77
0!
#78
1!
#79
0!
#80
0"
#81
1!
#82
0!
#83
1"
#84
1!
#85
0!
#86
0"
#87
1!
#88
0!
#89
1!
#90
0!
#91
0#
#92
1#
#93
1!
#94
0!
#95
1!
#96
0!
#97
1!
#98
0!
#99
1!
#100
0!
#101
1!
#102
0!
#103
1!
#104
0!
0$
#105
1!
#106
0!
#107
1!
#108
0!
#109
1!
#110
0!
#111
1!
#112
0!
#113
1!
#114
0!
#115
1!
#116
0!
#117
1!
#118
0!
#119
1$
#120
1!
#121
0!
0$
#122
1!
#123
0!
#124
1!
#125
0!
#126
1!
#127
0!
#128
1!
#129
0!
#130
1$
#131
1!
#132
0!
#133
0$
#134
1!
#135
0!
#136
1!
#137
0!
#138
1!
#139
0!
#140
1!
#141
0!
#142
1$
#143
1!
#144
0!
#145
1!
#146
0!
#147
0$
#148
1!
#149
0!
#150
1!
#151
0!
#152
1$
#153
1!
#154
0!
#155
0$
#156
1!
#157
0!
#158
1$
#159
1!
#160
0!
#161
1!
#162
0!
#163
0$
#164
1!
#165
0!
#166
1$
#167
0#
#168
1#
#169
1!
#170
0!
#171
1!
#172
0!
#173
1!
#174
0!
#175
1!
#176
0!
#177
1!
#178
0!
#179
1!
#180
0!
#181
1!
#182
0!
#183
1!
#184
0!
#185
1!
#186
0!
#187
1!
#188
0!
#189
1!
#190
0!
#191
1!
#192
0!
#193
1!
#194
0!
#195
1!
#196
0!
#197
1!
#198
0!
#199
1!
1"
#200
0!
#201
1!
#202
0!
#203
0"
#204
1!
#205
0!
#206
1"
#207
1!
#208
0!
#209
1!
#210
0!
#211
0"
#212
1!
#213
0!
#214
1!
#215
0!
#216
1!
#217
0!
#218
0$
#219
1!
#220
0!
#221
1!
#222
0!
#223
1!
#224
0!
#225
1$
#226
1!
#227
0!
#228
1!
#229
0!
#230
1"
#231
1!
#232
0!
#233
1!
#234
0!
#235
0"
#236
1!
#237
0!
#238
1"
#239
1!
