extensions/waveform-viewer-voltai/artifacts/pages_build/counter2.vcd
$timescale
	1s
$end
$scope module tb $end
$var wire 1 ! overflow $end
$var reg 1 " clk $end
$var reg 1 # reset $end
$var reg 1 + _tmp $end
$scope module dut $end
$var wire 1 " clk $end
$var wire 1 # reset $end
$var wire 1 ! overflow $end
$var reg 4 $ counter [3:0] $end
$upscope $end
$upscope $end
$enddefinitions $end
#0
$dumpvars
b0000 $
1#
0"
0!
x+
$end
#10
1"
#20
0"
#30
1"
#40
0"
#50
1"
#60
0"
#70
1"
#80
0"
#90
1"
#100
0"
0#
#110
1"
b0001 $
#120
0"
#130
1"
b0010 $
#140
0"
#150
1"
b0011 $
#160
0"
#170
1"
b0100 $
#180
0"
#190
1"
b0101 $
#200
0"
#210
1"
b0110 $
#220
0"
#230
1"
b0111 $
#240
0"
#250
1"
b1000 $
