extensions/waveform-viewer-voltai/artifacts/pages_build/random_3_16_true.vcd
$version Generated by VerilatedVcd $end
$date Sun 22 Oct 2023 04:49:36 AM CEST $end
$timescale 1s $end

 $scope module TOP $end
  $var wire  1 2 clk $end
  $var wire 16 0 io_compressed_payload_compressed [15:0] $end
  $var wire  1 / io_compressed_valid $end
  $var wire  3 . io_data [2:0] $end
  $var wire  1 1 io_run $end
  $var wire  1 3 reset $end
  $scope module LEB128Compressor_3_16 $end
   $var wire  1 ( adaptedCounterFlagBits [0:0] $end
   $var wire  1 2 clk $end
   $var wire 11 # counter [10:0] $end
   $var wire  2 $ counterFlagBits [1:0] $end
   $var wire  1 + cumulativeFlags [0:0] $end
   $var wire  1 ) dataChange $end
   $var wire  1 5 dataFlagBits [0:0] $end
   $var wire  2 % extractedChunkLSBits [1:0] $end
   $var wire  3 , flagBits [2:0] $end
   $var wire 16 0 io_compressed_payload_compressed [15:0] $end
   $var wire  1 / io_compressed_valid $end
   $var wire  3 . io_data [2:0] $end
   $var wire  3 4 io_data_regNext [2:0] $end
   $var wire  1 1 io_run $end
   $var wire  1 ' maxCount $end
   $var wire  2 & nextCounterFlagBits [1:0] $end
   $var wire 14 - outputData [13:0] $end
   $var wire  1 3 reset $end
   $var wire  1 * when_analyzer_l183 $end
  $upscope $end
 $upscope $end
$enddefinitions $end


#0
b00000000000 #
b00 $
b00 %
b00 &
0'
0(
1)
0*
0+
b000 ,
b00000000000001 -
b001 .
1/
b0000000000000001 0
11
02
13
b111 4
15
#160
03
#170
0)
1*
0/
12
b001 4
#175
02
#180
b00000000001 #
b01 %
b01 &
1+
b001 ,
b00000000001001 -
b0000000010001001 0
12
#185
02
#190
b00000000010 #
b01 $
b00 %
b00000000010001 -
b0000000010010001 0
12
#195
02
#200
b00000000011 #
b01 %
b00000000011001 -
b0000000010011001 0
12
#205
02
#210
b00000000100 #
b00 %
b00000000100001 -
b0000000010100001 0
12
#215
02
#220
b00000000101 #
b01 %
b00000000101001 -
b0000000010101001 0
12
#225
02
#230
b00000000110 #
b00 %
b00000000110001 -
b0000000010110001 0
12
#235
02
#240
b00000000111 #
b01 %
b00000000111001 -
b0000000010111001 0
12
#245
02
#250
b00000001000 #
b00 %
b00000001000001 -
b0000000011000001 0
12
#255
02
#260
b00000001001 #
b01 %
b00000001001001 -
b0000000011001001 0
12
#265
02
#270
b00000001010 #
b00 %
b00000001010001 -
b0000000011010001 0
12
#275
02
#280
b00000001011 #
b01 %
b00000001011001 -
b0000000011011001 0
12
#285
02
#290
b00000001100 #
b00 %
b00000001100001 -
b0000000011100001 0
12
#295
02
#300
b00000001101 #
b01 %
b00000001101001 -
b0000000011101001 0
12
#305
02
#310
b00000001110 #
b00 %
b00000001110001 -
b0000000011110001 0
12
#315
02
#320
b00000001111 #
b01 %
b00000001111001 -
b0000000011111001 0
12
#325
02
#330
b00000010000 #
b10 %
b11 &
1(
b011 ,
b00000010000001 -
b1000000110000001 0
12
#335
02
#340
b00000010001 #
b11 $
b11 %
b00000010001001 -
b1000000110001001 0
12
#345
02
#350
b00000010010 #
b10 %
b00000010010001 -
b1000000110010001 0
12
#355
02
#360
b00000010011 #
b11 %
b00000010011001 -
b1000000110011001 0
12
#365
02
#370
b00000010100 #
b10 %
b00000010100001 -
b1000000110100001 0
12
#375
02
#380
b00000010101 #
b11 %
b00000010101001 -
b1000000110101001 0
12
#385
02
#390
b00000010110 #
b10 %
b00000010110001 -
b1000000110110001 0
12
#395
02
#400
b00000010111 #
b11 %
b00000010111001 -
b1000000110111001 0
12
#405
02
#410
b00000011000 #
b10 %
b00000011000001 -
b1000000111000001 0
12
#415
02
#420
b00000011001 #
b11 %
b00000011001001 -
b1000000111001001 0
12
#425
02
#430
b00000011010 #
b10 %
b00000011010001 -
b1000000111010001 0
12
#435
02
#440
b00000011011 #
b11 %
b00000011011001 -
b1000000111011001 0
12
#445
02
#450
b00000011100 #
b10 %
b00000011100001 -
b1000000111100001 0
12
#455
02
#460
b00000011101 #
b11 %
b00000011101001 -
b1000000111101001 0
12
#465
02
#470
b00000011110 #
b10 %
b00000011110001 -
b1000000111110001 0
12
#475
02
#480
b00000011111 #
b11 %
b00000011111001 -
b1000000111111001 0
12
#485
02
#490
b00000100000 #
b00 %
b00000100000001 -
b1000001010000001 0
12
#495
02
#500
b00000100001 #
b01 %
b00000100001001 -
b1000001010001001 0
12
#505
02
#510
b00000100010 #
b00 %
b00000100010001 -
b1000001010010001 0
12
#515
02
#520
b00000100011 #
b01 %
b00000100011001 -
b1000001010011001 0
12
#525
02
#530
b00000100100 #
b00 %
b00000100100001 -
b1000001010100001 0
12
#535
02
#540
b00000100101 #
b01 %
b00000100101001 -
b1000001010101001 0
12
#545
02
#550
b00000100110 #
b00 %
b00000100110001 -
b1000001010110001 0
12
#555
02
#560
b00000100111 #
b01 %
b00000100111001 -
b1000001010111001 0
12
#565
02
#570
b00000101000 #
b00 %
b00000101000001 -
b1000001011000001 0
12
#575
02
#580
b00000101001 #
b01 %
b00000101001001 -
b1000001011001001 0
12
#585
02
#590
b00000101010 #
b00 %
b00000101010001 -
b1000001011010001 0
12
#595
02
#600
b00000101011 #
b01 %
b00000101011001 -
b1000001011011001 0
12
#605
02
#610
b00000101100 #
b00 %
b00000101100001 -
b1000001011100001 0
12
#615
02
#620
b00000101101 #
b01 %
b00000101101001 -
b1000001011101001 0
12
#625
02
#630
b00000101110 #
b00 %
b00000101110001 -
b1000001011110001 0
12
#635
02
#640
b00000101111 #
b01 %
b00000101111001 -
b1000001011111001 0
12
#645
02
#650
b00000110000 #
b10 %
b00000110000001 -
b1000001110000001 0
12
#655
02
#660
b00000110001 #
b11 %
b00000110001001 -
b1000001110001001 0
12
#665
02
#670
b00000110010 #
b10 %
b00000110010001 -
b1000001110010001 0
12
#675
02
#680
b00000110011 #
b11 %
b00000110011001 -
b1000001110011001 0
12
#685
02
#690
b00000110100 #
b10 %
b00000110100001 -
b1000001110100001 0
12
#695
02
#700
b00000110101 #
b11 %
b00000110101001 -
b1000001110101001 0
12
#705
02
#710
b00000110110 #
b10 %
b00000110110001 -
b1000001110110001 0
12
#715
02
#720
b00000110111 #
b11 %
b00000110111001 -
b1000001110111001 0
12
#725
02
#730
b00000111000 #
b10 %
b00000111000001 -
b1000001111000001 0
12
#735
02
#740
b00000111001 #
b11 %
b00000111001001 -
b1000001111001001 0
12
#745
02
#750
b00000111010 #
b10 %
b00000111010001 -
b1000001111010001 0
12
#755
02
#760
b00000111011 #
b11 %
b00000111011001 -
b1000001111011001 0
12
#765
02
#770
b00000111100 #
b10 %
b00000111100001 -
b1000001111100001 0
12
#775
02
#780
b00000111101 #
b11 %
b00000111101001 -
b1000001111101001 0
12
#785
02
#790
b00000111110 #
b10 %
b00000111110001 -
b1000001111110001 0
12
#795
02
#800
b00000111111 #
b11 %
b00000111111001 -
b1000001111111001 0
12
#805
02
#810
b00001000000 #
b00 %
b00001000000001 -
b1000010010000001 0
12
#815
02
#820
b00001000001 #
b01 %
b00001000001001 -
b1000010010001001 0
12
#825
02
#830
b00001000010 #
b00 %
b00001000010001 -
b1000010010010001 0
12
#835
02
#840
b00001000011 #
b01 %
b00001000011001 -
b1000010010011001 0
12
#845
02
#850
b00001000100 #
b00 %
b00001000100001 -
b1000010010100001 0
12
#855
02
#860
b00001000101 #
b01 %
b00001000101001 -
b1000010010101001 0
12
#865
02
#870
b00001000110 #
b00 %
b00001000110001 -
b1000010010110001 0
12
#875
02
#880
b00001000111 #
b01 %
b00001000111001 -
b1000010010111001 0
12
#885
02
#890
b00001001000 #
b00 %
b00001001000001 -
b1000010011000001 0
12
#895
02
#900
b00001001001 #
b01 %
b00001001001001 -
b1000010011001001 0
12
#905
02
#910
b00001001010 #
b00 %
b00001001010001 -
b1000010011010001 0
12
#915
02
#920
b00001001011 #
b01 %
b00001001011001 -
b1000010011011001 0
12
#925
02
#930
b00001001100 #
b00 %
b00001001100001 -
b1000010011100001 0
12
#935
02
#940
b00001001101 #
b01 %
b00001001101001 -
b1000010011101001 0
12
#945
02
#950
b00001001110 #
b00 %
b00001001110001 -
b1000010011110001 0
12
#955
02
#960
b00001001111 #
b01 %
b00001001111001 -
b1000010011111001 0
12
#965
02
#970
b00001010000 #
b10 %
b00001010000001 -
b1000010110000001 0
12
#975
02
#980
b00001010001 #
b11 %
b00001010001001 -
b1000010110001001 0
12
#985
02
#990
b00001010010 #
b10 %
b00001010010001 -
b1000010110010001 0
12
#995
02
#1000
b00001010011 #
b11 %
b00001010011001 -
b1000010110011001 0
12
#1005
02
#1010
b00001010100 #
b10 %
b00001010100001 -
b1000010110100001 0
12
#1015
02
#1020
b00001010101 #
b11 %
b00001010101001 -
b1000010110101001 0
12
#1025
02
#1030
b00001010110 #
b10 %
b00001010110001 -
b1000010110110001 0
12
#1035
02
#1040
b00001010111 #
b11 %
b00001010111001 -
b1000010110111001 0
12
#1045
02
#1050
b00001011000 #
b10 %
b00001011000001 -
b1000010111000001 0
12
#1055
02
#1060
b00001011001 #
b11 %
b00001011001001 -
b1000010111001001 0
12
#1065
02
#1070
b00001011010 #
b10 %
b00001011010001 -
b1000010111010001 0
12
#1075
02
#1080
b00001011011 #
b11 %
b00001011011001 -
b1000010111011001 0
12
#1085
02
#1090
b00001011100 #
b10 %
b00001011100001 -
b1000010111100001 0
12
#1095
02
#1100
b00001011101 #
b11 %
b00001011101001 -
b1000010111101001 0
12
#1105
02
#1110
b00001011110 #
b10 %
b00001011110001 -
b1000010111110001 0
12
#1115
02
#1120
b00001011111 #
b11 %
b00001011111001 -
b1000010111111001 0
12
#1125
02
#1130
b00001100000 #
b00 %
b00001100000001 -
b1000011010000001 0
12
#1135
02
#1140
b00001100001 #
b01 %
b00001100001001 -
b1000011010001001 0
12
#1145
02
#1150
b00001100010 #
b00 %
b00001100010001 -
b1000011010010001 0
12
#1155
02
#1160
b00001100011 #
b01 %
b00001100011001 -
b1000011010011001 0
12
#1165
02
#1170
b00001100100 #
b00 %
b00001100100001 -
b1000011010100001 0
12
#1175
02
#1180
b00001100101 #
b01 %
b00001100101001 -
b1000011010101001 0
12
#1185
02
#1190
b00001100110 #
b00 %
b00001100110001 -
b1000011010110001 0
12
#1195
02
#1200
b00001100111 #
b01 %
b00001100111001 -
b1000011010111001 0
12
#1205
02
#1210
b00001101000 #
b00 %
b00001101000001 -
b1000011011000001 0
12
#1215
02
#1220
b00001101001 #
b01 %
b00001101001001 -
b1000011011001001 0
12
#1225
02
#1230
b00001101010 #
b00 %
b00001101010001 -
b1000011011010001 0
12
#1235
02
#1240
b00001101011 #
b01 %
b00001101011001 -
b1000011011011001 0
12
#1245
02
#1250
b00001101100 #
b00 %
b00001101100001 -
b1000011011100001 0
12
#1255
02
#1260
b00001101101 #
b01 %
b00001101101001 -
b1000011011101001 0
12
#1265
02
#1270
b00001101110 #
b00 %
b00001101110001 -
b1000011011110001 0
12
#1275
02
#1280
b00001101111 #
b01 %
b00001101111001 -
b1000011011111001 0
12
#1285
02
#1290
b00001110000 #
b10 %
b00001110000001 -
b1000011110000001 0
12
#1295
02
#1300
b00001110001 #
b11 %
b00001110001001 -
b1000011110001001 0
12
#1305
02
#1310
b00001110010 #
b10 %
b00001110010001 -
b1000011110010001 0
12
#1315
02
#1320
b00001110011 #
b11 %
b00001110011001 -
b1000011110011001 0
12
#1325
02
#1330
b00001110100 #
b10 %
b00001110100001 -
b1000011110100001 0
12
#1335
02
#1340
b00001110101 #
b11 %
b00001110101001 -
b1000011110101001 0
12
#1345
02
#1350
b00001110110 #
b10 %
b00001110110001 -
b1000011110110001 0
12
#1355
02
#1360
b00001110111 #
b11 %
b00001110111001 -
b1000011110111001 0
12
#1365
02
#1370
b00001111000 #
b10 %
b00001111000001 -
b1000011111000001 0
12
#1375
02
#1380
b00001111001 #
b11 %
b00001111001001 -
b1000011111001001 0
12
#1385
02
#1390
b00001111010 #
b10 %
b00001111010001 -
b1000011111010001 0
12
#1395
02
#1400
b00001111011 #
b11 %
b00001111011001 -
b1000011111011001 0
12
#1405
02
#1410
b00001111100 #
b10 %
b00001111100001 -
b1000011111100001 0
12
#1415
02
#1420
b00001111101 #
b11 %
b00001111101001 -
b1000011111101001 0
12
#1425
02
#1430
b00001111110 #
b10 %
b00001111110001 -
b1000011111110001 0
12
#1435
02
#1440
b00001111111 #
b11 %
b00001111111001 -
b1000011111111001 0
12
#1445
02
#1450
b00010000000 #
b00 %
b00010000000001 -
b1000100010000001 0
12
#1455
02
#1460
b00010000001 #
b01 %
b00010000001001 -
b1000100010001001 0
12
#1465
02
#1470
b00010000010 #
b00 %
b00010000010001 -
b1000100010010001 0
12
#1475
02
#1480
b00010000011 #
b01 %
b00010000011001 -
b1000100010011001 0
12
#1485
02
#1490
b00010000100 #
b00 %
b00010000100001 -
b1000100010100001 0
12
#1495
02
#1500
b00010000101 #
b01 %
b00010000101001 -
b1000100010101001 0
12
#1505
02
#1510
b00010000110 #
b00 %
b00010000110001 -
b1000100010110001 0
12
#1515
02
#1520
b00010000111 #
b01 %
b00010000111001 -
b1000100010111001 0
12
#1525
02
#1530
b00010001000 #
b00 %
b00010001000001 -
b1000100011000001 0
12
#1535
02
#1540
b00010001001 #
b01 %
b00010001001001 -
b1000100011001001 0
12
#1545
02
#1550
b00010001010 #
b00 %
b00010001010001 -
b1000100011010001 0
12
#1555
02
#1560
b00010001011 #
b01 %
b00010001011001 -
b1000100011011001 0
12
#1565
02
#1570
b00010001100 #
b00 %
b00010001100001 -
b1000100011100001 0
12
#1575
02
#1580
b00010001101 #
b01 %
b00010001101001 -
b1000100011101001 0
12
#1585
02
#1590
b00010001110 #
b00 %
b00010001110001 -
b1000100011110001 0
12
#1595
02
#1600
b00010001111 #
b01 %
b00010001111001 -
b1000100011111001 0
12
#1605
02
#1610
b00010010000 #
b10 %
b00010010000001 -
b1000100110000001 0
12
#1615
02
#1620
b00010010001 #
b11 %
b00010010001001 -
b1000100110001001 0
12
#1625
02
#1630
b00010010010 #
b10 %
b00010010010001 -
b1000100110010001 0
12
#1635
02
#1640
b00010010011 #
b11 %
b00010010011001 -
b1000100110011001 0
12
#1645
02
#1650
b00010010100 #
b10 %
b00010010100001 -
b1000100110100001 0
12
#1655
02
#1660
b00010010101 #
b11 %
b00010010101001 -
b1000100110101001 0
12
#1665
02
#1670
b00010010110 #
b10 %
b00010010110001 -
b1000100110110001 0
12
#1675
02
#1680
b00010010111 #
b11 %
b00010010111001 -
b1000100110111001 0
12
#1685
02
#1690
b00010011000 #
b10 %
b00010011000001 -
b1000100111000001 0
12
#1695
02
#1700
b00010011001 #
b11 %
b00010011001001 -
b1000100111001001 0
12
#1705
02
#1710
b00010011010 #
b10 %
b00010011010001 -
b1000100111010001 0
12
#1715
02
#1720
b00010011011 #
b11 %
b00010011011001 -
b1000100111011001 0
12
#1725
02
#1730
b00010011100 #
b10 %
b00010011100001 -
b1000100111100001 0
12
#1735
02
#1740
b00010011101 #
b11 %
b00010011101001 -
b1000100111101001 0
12
#1745
02
#1750
b00010011110 #
b10 %
b00010011110001 -
b1000100111110001 0
12
#1755
02
#1760
b00010011111 #
b11 %
b00010011111001 -
b1000100111111001 0
12
#1765
02
#1770
b00010100000 #
b00 %
b00010100000001 -
b1000101010000001 0
12
#1775
02
#1780
b00010100001 #
b01 %
b00010100001001 -
b1000101010001001 0
12
#1785
02
#1790
b00010100010 #
b00 %
b00010100010001 -
b1000101010010001 0
12
#1795
02
#1800
b00010100011 #
b01 %
b00010100011001 -
b1000101010011001 0
12
#1805
02
#1810
b00010100100 #
b00 %
b00010100100001 -
b1000101010100001 0
12
#1815
02
#1820
b00010100101 #
b01 %
b00010100101001 -
b1000101010101001 0
12
#1825
02
#1830
b00010100110 #
b00 %
b00010100110001 -
b1000101010110001 0
12
#1835
02
#1840
b00010100111 #
b01 %
b00010100111001 -
b1000101010111001 0
12
#1845
02
#1850
b00010101000 #
b00 %
b00010101000001 -
b1000101011000001 0
12
#1855
02
#1860
b00010101001 #
b01 %
b00010101001001 -
b1000101011001001 0
12
#1865
02
#1870
b00010101010 #
b00 %
b00010101010001 -
b1000101011010001 0
12
#1875
02
#1880
b00010101011 #
b01 %
b00010101011001 -
b1000101011011001 0
12
#1885
02
#1890
b00010101100 #
b00 %
b00010101100001 -
b1000101011100001 0
12
#1895
02
#1900
b00010101101 #
b01 %
b00010101101001 -
b1000101011101001 0
12
#1905
02
#1910
b00010101110 #
b00 %
b00010101110001 -
b1000101011110001 0
12
#1915
02
#1920
b00010101111 #
b01 %
b00010101111001 -
b1000101011111001 0
12
#1925
02
#1930
b00010110000 #
b10 %
b00010110000001 -
b1000101110000001 0
12
#1935
02
#1940
b00010110001 #
b11 %
b00010110001001 -
b1000101110001001 0
12
#1945
02
#1950
b00010110010 #
b10 %
b00010110010001 -
b1000101110010001 0
12
#1955
02
#1960
b00010110011 #
b11 %
b00010110011001 -
b1000101110011001 0
12
#1965
02
#1970
b00010110100 #
b10 %
b00010110100001 -
b1000101110100001 0
12
#1975
02
#1980
b00010110101 #
b11 %
b00010110101001 -
b1000101110101001 0
12
#1985
02
#1990
b00010110110 #
b10 %
b00010110110001 -
b1000101110110001 0
12
#1995
02
#2000
b00010110111 #
b11 %
b00010110111001 -
b1000101110111001 0
12
#2005
02
#2010
b00010111000 #
b10 %
b00010111000001 -
b1000101111000001 0
12
#2015
02
#2020
b00010111001 #
b11 %
b00010111001001 -
b1000101111001001 0
12
#2025
02
#2030
b00010111010 #
b10 %
b00010111010001 -
b1000101111010001 0
12
#2035
02
#2040
b00010111011 #
b11 %
b00010111011001 -
b1000101111011001 0
12
#2045
02
#2050
b00010111100 #
b10 %
b00010111100001 -
b1000101111100001 0
12
#2055
02
#2060
b00010111101 #
b11 %
b00010111101001 -
b1000101111101001 0
12
#2065
02
#2070
b00010111110 #
b10 %
b00010111110001 -
b1000101111110001 0
12
#2075
02
#2080
b00010111111 #
b11 %
b00010111111001 -
b1000101111111001 0
12
#2085
02
#2090
b00011000000 #
b00 %
b00011000000001 -
b1000110010000001 0
12
#2095
02
#2100
b00011000001 #
b01 %
b00011000001001 -
b1000110010001001 0
12
#2105
02
#2110
b00011000010 #
b00 %
b00011000010001 -
b1000110010010001 0
12
#2115
02
#2120
b00011000011 #
b01 %
b00011000011001 -
b1000110010011001 0
12
#2125
02
#2130
b00011000100 #
b00 %
b00011000100001 -
b1000110010100001 0
12
#2135
02
#2140
b00011000101 #
b01 %
b00011000101001 -
b1000110010101001 0
12
#2145
02
#2150
b00011000110 #
b00 %
b00011000110001 -
b1000110010110001 0
12
#2155
02
#2160
b00011000111 #
b01 %
b00011000111001 -
b1000110010111001 0
12
#2165
02
#2170
b00011001000 #
b00 %
b00011001000001 -
b1000110011000001 0
12
#2175
02
#2180
b00011001001 #
b01 %
b00011001001001 -
b1000110011001001 0
12
#2185
02
#2190
b00011001010 #
b00 %
b00011001010001 -
b1000110011010001 0
12
#2195
02
#2200
b00011001011 #
b01 %
b00011001011001 -
b1000110011011001 0
12
#2205
02
#2210
b00011001100 #
b00 %
b00011001100001 -
b1000110011100001 0
12
#2215
02
#2220
b00011001101 #
b01 %
b00011001101001 -
b1000110011101001 0
12
#2225
02
#2230
b00011001110 #
b00 %
b00011001110001 -
b1000110011110001 0
12
#2235
02
#2240
b00011001111 #
b01 %
b00011001111001 -
b1000110011111001 0
12
#2245
02
#2250
b00011010000 #
b10 %
b00011010000001 -
b1000110110000001 0
12
#2255
02
#2260
b00011010001 #
b11 %
b00011010001001 -
b1000110110001001 0
12
#2265
02
#2270
b00011010010 #
b10 %
b00011010010001 -
b1000110110010001 0
12
#2275
02
#2280
b00011010011 #
b11 %
b00011010011001 -
b1000110110011001 0
12
#2285
02
#2290
b00011010100 #
b10 %
b00011010100001 -
b1000110110100001 0
12
#2295
02
#2300
b00011010101 #
b11 %
b00011010101001 -
b1000110110101001 0
12
#2305
02
#2310
b00011010110 #
b10 %
b00011010110001 -
b1000110110110001 0
12
#2315
02
#2320
b00011010111 #
b11 %
b00011010111001 -
b1000110110111001 0
12
#2325
02
#2330
b00011011000 #
b10 %
b00011011000001 -
b1000110111000001 0
12
#2335
02
#2340
b00011011001 #
b11 %
b00011011001001 -
b1000110111001001 0
12
#2345
02
#2350
b00011011010 #
b10 %
b00011011010001 -
b1000110111010001 0
12
#2355
02
#2360
b00011011011 #
b11 %
b00011011011001 -
b1000110111011001 0
12
#2365
02
#2370
b00011011100 #
b10 %
b00011011100001 -
b1000110111100001 0
12
#2375
02
#2380
b00011011101 #
b11 %
b00011011101001 -
b1000110111101001 0
12
#2385
02
#2390
b00011011110 #
b10 %
b00011011110001 -
b1000110111110001 0
12
#2395
02
#2400
b00011011111 #
b11 %
b00011011111001 -
b1000110111111001 0
12
#2405
02
#2410
b00011100000 #
b00 %
b00011100000001 -
b1000111010000001 0
12
#2415
02
#2420
b00011100001 #
b01 %
b00011100001001 -
b1000111010001001 0
12
#2425
02
#2430
b00011100010 #
b00 %
b00011100010001 -
b1000111010010001 0
12
#2435
02
#2440
b00011100011 #
b01 %
b00011100011001 -
b1000111010011001 0
12
#2445
02
#2450
b00011100100 #
b00 %
b00011100100001 -
b1000111010100001 0
12
#2455
02
#2460
b00011100101 #
b01 %
b00011100101001 -
b1000111010101001 0
12
#2465
02
#2470
b00011100110 #
b00 %
b00011100110001 -
b1000111010110001 0
12
#2475
02
#2480
b00011100111 #
b01 %
b00011100111001 -
b1000111010111001 0
12
#2485
02
#2490
b00011101000 #
b00 %
b00011101000001 -
b1000111011000001 0
12
#2495
02
#2500
b00011101001 #
b01 %
b00011101001001 -
b1000111011001001 0
12
#2505
02
#2510
b00011101010 #
b00 %
b00011101010001 -
b1000111011010001 0
12
#2515
02
#2520
b00011101011 #
b01 %
b00011101011001 -
b1000111011011001 0
12
#2525
02
#2530
b00011101100 #
b00 %
b00011101100001 -
b1000111011100001 0
12
#2535
02
#2540
b00011101101 #
b01 %
b00011101101001 -
b1000111011101001 0
12
#2545
02
#2550
b00011101110 #
b00 %
b00011101110001 -
b1000111011110001 0
12
#2555
02
#2560
b00011101111 #
b01 %
b00011101111001 -
b1000111011111001 0
12
#2565
02
#2570
b00011110000 #
b10 %
b00011110000001 -
b1000111110000001 0
12
#2575
02
#2580
b00011110001 #
b11 %
b00011110001001 -
b1000111110001001 0
12
#2585
02
#2590
b00011110010 #
b10 %
b00011110010001 -
b1000111110010001 0
12
#2595
02
#2600
b00011110011 #
b11 %
b00011110011001 -
b1000111110011001 0
12
#2605
02
#2610
b00011110100 #
b10 %
b00011110100001 -
b1000111110100001 0
12
#2615
02
#2620
b00011110101 #
b11 %
b00011110101001 -
b1000111110101001 0
12
#2625
02
#2630
b00011110110 #
b10 %
b00011110110001 -
b1000111110110001 0
12
#2635
02
#2640
b00011110111 #
b11 %
b00011110111001 -
b1000111110111001 0
12
#2645
02
#2650
b00011111000 #
b10 %
b00011111000001 -
b1000111111000001 0
12
#2655
02
#2660
b00011111001 #
b11 %
b00011111001001 -
b1000111111001001 0
12
#2665
02
#2670
b00011111010 #
b10 %
b00011111010001 -
b1000111111010001 0
12
#2675
02
#2680
b00011111011 #
b11 %
b00011111011001 -
b1000111111011001 0
12
#2685
02
#2690
b00011111100 #
b10 %
b00011111100001 -
b1000111111100001 0
12
#2695
02
#2700
b00011111101 #
b11 %
b00011111101001 -
b1000111111101001 0
12
#2705
02
#2710
b00011111110 #
b10 %
b00011111110001 -
b1000111111110001 0
12
#2715
02
#2720
b00011111111 #
b11 %
b00011111111001 -
b1000111111111001 0
12
#2725
02
#2730
b00100000000 #
b00 %
b00100000000001 -
b1001000010000001 0
12
#2735
02
#2740
b00100000001 #
b01 %
b00100000001001 -
b1001000010001001 0
12
#2745
02
#2750
b00100000010 #
b00 %
b00100000010001 -
b1001000010010001 0
12
#2755
02
#2760
b00100000011 #
b01 %
b00100000011001 -
b1001000010011001 0
12
#2765
02
#2770
b00100000100 #
b00 %
b00100000100001 -
b1001000010100001 0
12
#2775
02
#2780
b00100000101 #
b01 %
b00100000101001 -
b1001000010101001 0
12
#2785
02
#2790
b00100000110 #
b00 %
b00100000110001 -
b1001000010110001 0
12
#2795
02
#2800
b00100000111 #
b01 %
b00100000111001 -
b1001000010111001 0
12
#2805
02
#2810
b00100001000 #
b00 %
b00100001000001 -
b1001000011000001 0
12
#2815
02
#2820
b00100001001 #
b01 %
b00100001001001 -
b1001000011001001 0
12
#2825
02
#2830
b00100001010 #
b00 %
b00100001010001 -
b1001000011010001 0
12
#2835
02
#2840
b00100001011 #
b01 %
b00100001011001 -
b1001000011011001 0
12
#2845
02
#2850
b00100001100 #
b00 %
b00100001100001 -
b1001000011100001 0
12
#2855
02
#2860
b00100001101 #
b01 %
b00100001101001 -
b1001000011101001 0
12
#2865
02
#2870
b00100001110 #
b00 %
b00100001110001 -
b1001000011110001 0
12
#2875
02
#2880
b00100001111 #
b01 %
b00100001111001 -
b1001000011111001 0
12
#2885
02
#2890
b00100010000 #
b10 %
b00100010000001 -
b1001000110000001 0
12
#2895
02
#2900
b00100010001 #
b11 %
b00100010001001 -
b1001000110001001 0
12
#2905
02
#2910
b00100010010 #
b10 %
b00100010010001 -
b1001000110010001 0
12
#2915
02
#2920
b00100010011 #
b11 %
b00100010011001 -
b1001000110011001 0
12
#2925
02
#2930
b00100010100 #
b10 %
b00100010100001 -
b1001000110100001 0
12
#2935
02
#2940
b00100010101 #
b11 %
b00100010101001 -
b1001000110101001 0
12
#2945
02
#2950
b00100010110 #
b10 %
b00100010110001 -
b1001000110110001 0
12
#2955
02
#2960
b00100010111 #
b11 %
b00100010111001 -
b1001000110111001 0
12
#2965
02
#2970
b00100011000 #
b10 %
b00100011000001 -
b1001000111000001 0
12
#2975
02
#2980
b00100011001 #
b11 %
b00100011001001 -
b1001000111001001 0
12
#2985
02
#2990
b00100011010 #
b10 %
b00100011010001 -
b1001000111010001 0
12
#2995
02
#3000
b00100011011 #
b11 %
b00100011011001 -
b1001000111011001 0
12
#3005
02
#3010
b00100011100 #
b10 %
b00100011100001 -
b1001000111100001 0
12
#3015
02
#3020
b00100011101 #
b11 %
b00100011101001 -
b1001000111101001 0
12
#3025
02
#3030
b00100011110 #
b10 %
b00100011110001 -
b1001000111110001 0
12
#3035
02
#3040
b00100011111 #
b11 %
b00100011111001 -
b1001000111111001 0
12
#3045
02
#3050
b00100100000 #
b00 %
b00100100000001 -
b1001001010000001 0
12
#3055
02
#3060
b00100100001 #
b01 %
b00100100001001 -
b1001001010001001 0
12
#3065
02
#3070
b00100100010 #
b00 %
b00100100010001 -
b1001001010010001 0
12
#3075
02
#3080
b00100100011 #
b01 %
b00100100011001 -
b1001001010011001 0
12
#3085
02
#3090
b00100100100 #
b00 %
b00100100100001 -
b1001001010100001 0
12
#3095
02
#3100
b00100100101 #
b01 %
b00100100101001 -
b1001001010101001 0
12
#3105
02
#3110
b00100100110 #
b00 %
b00100100110001 -
b1001001010110001 0
12
#3115
02
#3120
b00100100111 #
b01 %
b00100100111001 -
b1001001010111001 0
12
#3125
02
#3130
b00100101000 #
b00 %
b00100101000001 -
b1001001011000001 0
12
#3135
02
#3140
b00100101001 #
b01 %
b00100101001001 -
b1001001011001001 0
12
#3145
02
#3150
b00100101010 #
b00 %
b00100101010001 -
b1001001011010001 0
12
#3155
02
#3160
b00100101011 #
b01 %
b00100101011001 -
b1001001011011001 0
12
#3165
02
#3170
b00100101100 #
b00 %
b00100101100001 -
b1001001011100001 0
12
#3175
02
#3180
b00100101101 #
b01 %
b00100101101001 -
b1001001011101001 0
12
#3185
02
#3190
b00100101110 #
b00 %
b00100101110001 -
b1001001011110001 0
12
#3195
02
#3200
b00100101111 #
b01 %
b00100101111001 -
b1001001011111001 0
12
#3205
02
#3210
b00100110000 #
b10 %
b00100110000001 -
b1001001110000001 0
12
#3215
02
#3220
b00100110001 #
b11 %
b00100110001001 -
b1001001110001001 0
12
#3225
02
#3230
b00100110010 #
b10 %
b00100110010001 -
b1001001110010001 0
12
#3235
02
#3240
b00100110011 #
b11 %
b00100110011001 -
b1001001110011001 0
12
#3245
02
#3250
b00100110100 #
b10 %
b00100110100001 -
b1001001110100001 0
12
#3255
02
#3260
b00100110101 #
b11 %
b00100110101001 -
b1001001110101001 0
12
#3265
02
#3270
b00100110110 #
b10 %
b00100110110001 -
b1001001110110001 0
12
#3275
02
#3280
b00100110111 #
b11 %
b00100110111001 -
b1001001110111001 0
12
#3285
02
#3290
b00100111000 #
b10 %
b00100111000001 -
b1001001111000001 0
12
#3295
02
#3300
b00100111001 #
b11 %
b00100111001001 -
b1001001111001001 0
12
#3305
02
#3310
b00100111010 #
b10 %
b00100111010001 -
b1001001111010001 0
12
#3315
02
#3320
b00100111011 #
b11 %
b00100111011001 -
b1001001111011001 0
12
#3325
02
#3330
b00100111100 #
b10 %
b00100111100001 -
b1001001111100001 0
12
#3335
02
#3340
b00100111101 #
b11 %
b00100111101001 -
b1001001111101001 0
12
#3345
02
#3350
b00100111110 #
b10 %
b00100111110001 -
b1001001111110001 0
12
#3355
02
#3360
b00100111111 #
b11 %
b00100111111001 -
b1001001111111001 0
12
#3365
02
#3370
b00101000000 #
b00 %
b00101000000001 -
b1001010010000001 0
12
#3375
02
#3380
b00101000001 #
b01 %
b00101000001001 -
b1001010010001001 0
12
#3385
02
#3390
b00101000010 #
b00 %
b00101000010001 -
b1001010010010001 0
12
#3395
02
#3400
b00101000011 #
b01 %
b00101000011001 -
b1001010010011001 0
12
#3405
02
#3410
b00101000100 #
b00 %
b00101000100001 -
b1001010010100001 0
12
#3415
02
#3420
b00101000101 #
b01 %
b00101000101001 -
b1001010010101001 0
12
#3425
02
