extensions/waveform-viewer-voltai/artifacts/pages_build/verilator_empty_scope.vcd
$version Generated by VerilatedVcd $end
$timescale 1ps $end
 $scope module  $end
  $scope module top_test $end
   $var wire 1 V clk_25mhz $end
   $var wire 7 W btn [6:0] $end
   $var wire 1 X ftdi_rxd $end
   $var wire 1 X ftdi_rxd_mut $end
   $var wire 1 V clk $end
   $var wire 5 # rst_count [4:0] $end
   $var wire 1 N rst $end
   $var wire 16 J counter [15:0] $end
   $scope module quickscope_impl_0 $end
    $var wire 1 V clk_i $end
    $var wire 1 N rst_i $end
    $var wire 24 _ config_i [23:0] $end
    $var wire 16 J channels_i [15:0] $end
    $var wire 16 Y triggers_i [15:0] $end
    $var wire 16 ` num_samples_override_i [15:0] $end
    $var wire 1 X uart_tx_o $end
    $var wire 31 a uart_config_i [30:0] $end
    $var wire 1 V clk $end
    $var wire 1 N rst $end
    $var wire 24 _ config [23:0] $end
    $var wire 16 J channels [15:0] $end
    $var wire 16 Y triggers [15:0] $end
    $var wire 16 ` num_samples_override [15:0] $end
    $var wire 1 X uart_tx_mut $end
    $var wire 31 a uart_config [30:0] $end
    $var wire 1 O s1_rst $end
    $var wire 24 $ s1_config [23:0] $end
    $var wire 16 % s1_channels [15:0] $end
    $var wire 16 & s1_triggers [15:0] $end
    $var wire 16 ' s1_num_samples_override [15:0] $end
    $var wire 31 ( s1_uart_config [30:0] $end
    $var wire 26 ) s1_state [25:0] $end
    $var wire 1 * s1_write_enable $end
    $var wire 1 + s1_readout_done $end
    $var wire 1 P s2_rst $end
    $var wire 24 , s2_config [23:0] $end
    $var wire 16 - s2_channels [15:0] $end
    $var wire 16 . s2_triggers [15:0] $end
    $var wire 16 / s2_num_samples_override [15:0] $end
    $var wire 31 0 s2_uart_config [30:0] $end
    $var wire 26 1 s2_state [25:0] $end
    $var wire 1 2 s2_write_enable $end
    $var wire 1 3 s2_readout_done $end
    $var wire 26 K state [25:0] $end
    $var wire 1 L write_enable $end
    $var wire 1 b readout_done $end
    $var wire 16 4 sample_mem_read_port [15:0] $end
    $var wire 15 Q sample_mem_read_port_mut [14:0] $end
    $var wire 1 < readout_out $end
    $scope module readout_0 $end
     $var wire 1 V clk_i $end
     $var wire 1 P rst_i $end
     $var wire 1 5 perform_readout_i $end
     $var wire 16 / num_samples_override_i [15:0] $end
     $var wire 1 X uart_tx_wire_o $end
     $var wire 31 0 uart_config_i [30:0] $end
     $var wire 16 4 sample_port_i [15:0] $end
     $var wire 15 Q sample_port_o [14:0] $end
     $var wire 1 < output__ $end
     $var wire 1 V clk $end
     $var wire 1 P rst $end
     $var wire 1 5 perform_readout $end
     $var wire 16 / num_samples_override [15:0] $end
     $var wire 1 X uart_tx_wire_mut $end
     $var wire 31 0 uart_config [30:0] $end
     $var wire 16 4 sample_port [15:0] $end
     $var wire 15 Q sample_port_mut [14:0] $end
     $var wire 15 6 override [14:0] $end
     $var wire 15 7 num_samples [14:0] $end
     $var wire 15 = sample [14:0] $end
     $var wire 2 > byte [1:0] $end
     $var wire 18 R next_state [17:0] $end
     $var wire 18 ? state [17:0] $end
     $var wire 15 S sample_n1 [14:0] $end
     $var wire 15 Q uart_read_addr [14:0] $end
     $var wire 2 > byte_n1 [1:0] $end
     $var wire 9 T to_transmit [8:0] $end
     $var wire 2 @ uart_out [1:0] $end
     $scope module uart_tx_0 $end
      $var wire 1 V clk_i $end
      $var wire 1 P rst_i $end
      $var wire 9 T transmit_i [8:0] $end
      $var wire 31 0 config_i [30:0] $end
      $var wire 2 @ output__ [1:0] $end
      $var wire 1 V clk $end
      $var wire 1 P rst $end
      $var wire 9 T transmit [8:0] $end
      $var wire 31 0 config [30:0] $end
      $var wire 8 U data [7:0] $end
      $var wire 27 A time [26:0] $end
      $var wire 8 B to_tx [7:0] $end
      $var wire 27 A time_n1 [26:0] $end
      $var wire 4 C num_left [3:0] $end
      $var wire 8 D to_tx_n1 [7:0] $end
      $var wire 1 E odd_parity $end
      $var wire 27 A time_n2 [26:0] $end
      $var wire 1 F odd $end
      $var wire 27 A time_n3 [26:0] $end
      $var wire 3 G count [2:0] $end
      $var wire 43 H state [42:0] $end
      $var wire 8 D to_tx_n2 [7:0] $end
      $var wire 1 F odd_n1 $end
     $upscope $end
    $upscope $end
    $scope module sample_memory_0 $end
     $var wire 1 V clk_i $end
     $var wire 1 O rst_i $end
     $var wire 1 * we_i $end
     $var wire 16 % sample_i [15:0] $end
     $var wire 16 4 output__ [15:0] $end
     $var wire 15 Q input__ [14:0] $end
     $var wire 1 V clk $end
     $var wire 1 O rst $end
     $var wire 1 * we $end
     $var wire 16 % sample [15:0] $end
     $var wire 1 8 s1_rst $end
     $var wire 1 9 s1_we $end
     $var wire 16 : s1_sample [15:0] $end
     $var wire 15 ; s1_ptr [14:0] $end
     $var wire 16 4 s1_out [15:0] $end
     $var wire 15 Q read_addr_mut [14:0] $end
     $var wire 15 Z next [14:0] $end
     $var wire 15 [ ptr [14:0] $end
     $var wire 16 \ out [15:0] $end
    $upscope $end
    $scope module trig_manager_0 $end
     $var wire 1 V clk_i $end
     $var wire 1 N rst_i $end
     $var wire 24 _ config_i [23:0] $end
     $var wire 16 J channels_i [15:0] $end
     $var wire 16 Y triggers_i [15:0] $end
     $var wire 1 < readout_done_i $end
     $var wire 26 K output__ [25:0] $end
     $var wire 1 V clk $end
     $var wire 1 N rst $end
     $var wire 24 _ config [23:0] $end
     $var wire 16 J channels [15:0] $end
     $var wire 16 Y triggers [15:0] $end
     $var wire 1 < readout_done $end
     $var wire 1 ] triggered $end
     $var wire 24 M num_left [23:0] $end
     $var wire 24 M num_left_n1 [23:0] $end
     $var wire 26 K state [25:0] $end
     $scope module is_triggered_0 $end
      $var wire 2 ^ trig_i [1:0] $end
      $var wire 1 ] output__ $end
      $var wire 2 ^ trig [1:0] $end
     $upscope $end
     $scope module is_triggered_1 $end
      $var wire 2 c trig_i [1:0] $end
      $var wire 1 d output__ $end
      $var wire 2 c trig [1:0] $end
     $upscope $end
     $scope module is_triggered_2 $end
      $var wire 2 c trig_i [1:0] $end
      $var wire 1 d output__ $end
      $var wire 2 c trig [1:0] $end
     $upscope $end
     $scope module is_triggered_3 $end
      $var wire 2 c trig_i [1:0] $end
      $var wire 1 d output__ $end
      $var wire 2 c trig [1:0] $end
     $upscope $end
     $scope module is_triggered_4 $end
      $var wire 2 c trig_i [1:0] $end
      $var wire 1 d output__ $end
      $var wire 2 c trig [1:0] $end
     $upscope $end
     $scope module is_triggered_5 $end
      $var wire 2 c trig_i [1:0] $end
      $var wire 1 d output__ $end
      $var wire 2 c trig [1:0] $end
     $upscope $end
     $scope module is_triggered_6 $end
      $var wire 2 c trig_i [1:0] $end
      $var wire 1 d output__ $end
      $var wire 2 c trig [1:0] $end
     $upscope $end
     $scope module is_triggered_7 $end
      $var wire 2 c trig_i [1:0] $end
      $var wire 1 d output__ $end
      $var wire 2 c trig [1:0] $end
     $upscope $end
    $upscope $end
   $upscope $end
  $upscope $end
 $upscope $end
$enddefinitions $end


#0
b00101 #
b000000000000000000000000 $
b0000000000000000 %
b0000000000000000 &
b0000000000000000 '
b0000000000000000000000000000000 (
b00000000000000000000000000 )
0*
0+
b000000000000000000000000 ,
b0000000000000000 -
b0000000000000000 .
b0000000000000000 /
b0000000000000000000000000000000 0
b00000000000000000000000000 1
02
03
b0000000000000000 4
05
b000000000000000 6
b000000000000000 7
08
09
b0000000000000000 :
b000000000000000 ;
0<
b000000000000000 =
b00 >
b000000000000000000 ?
b11 @
b000000000000000000000000000 A
b00000000 B
b0000 C
b00000000 D
0E
0F
b000 G
b0000000000000000000000000000000000000000000 H
b0000000000000000 J
b00000000000000000000000000 K
1L
b000000000000000000000000 M
1N
0O
0P
b000000000000000 Q
b000000000000000000 R
b000000000000000 S
b100000000 T
b00000000 U
1V
b0000000 W
1X
b1010101010101000 Y
b000000000000001 Z
b000000000000000 [
b0000000000000000 \
0]
b00 ^
b000000000000000001100100 _
b0000001111101000 `
b0000000000000000000000110110010 a
0b
b10 c
1d
#1
0V
#2
b00100 #
b000000000000000001100100 $
b1010101010101000 &
b0000001111101000 '
b0000000000000000000000110110010 (
1*
1O
1V
#3
0V
#4
b00011 #
b000000000000000001100100 ,
b1010101010101000 .
b0000001111101000 /
b0000000000000000000000110110010 0
12
b000001111101000 6
b000001111101000 7
18
19
1P
1V
#5
0V
#6
b00010 #
1V
#7
0V
#8
b00001 #
1V
#9
0V
#10
b00000 #
0N
1V
#11
0V
#12
b0000000000000001 J
0O
1V
#13
0V
#14
b0000000000000001 %
08
b0000000000000010 J
0P
1V
b000000000000010 Z
b000000000000001 [
#15
0V
#16
b0000000000000010 %
b0000000000000001 -
b0000000000000001 :
b000000000000001 ;
b0000000000000011 J
1V
b000000000000011 Z
b000000000000010 [
#17
0V
#18
b0000000000000011 %
b0000000000000010 -
b0000000000000010 :
b000000000000010 ;
b0000000000000100 J
1V
b000000000000100 Z
b000000000000011 [
#19
0V
#20
b0000000000000100 %
b0000000000000011 -
b0000000000000011 :
b000000000000011 ;
b0000000000000101 J
1V
b000000000000101 Z
b000000000000100 [
#21
0V
#22
b0000000000000101 %
b0000000000000100 -
b0000000000000100 :
b000000000000100 ;
b0000000000000110 J
1V
b000000000000110 Z
b000000000000101 [
#23
0V
#24
b0000000000000110 %
b0000000000000101 -
b0000000000000101 :
b000000000000101 ;
b0000000000000111 J
1V
b000000000000111 Z
b000000000000110 [
#25
0V
#26
b0000000000000111 %
b0000000000000110 -
b0000000000000110 :
b000000000000110 ;
b0000000000001000 J
1V
b000000000001000 Z
b000000000000111 [
#27
0V
#28
b0000000000001000 %
b0000000000000111 -
b0000000000000111 :
b000000000000111 ;
b0000000000001001 J
1V
b000000000001001 Z
b000000000001000 [
#29
0V
#30
b0000000000001001 %
b0000000000001000 -
b0000000000001000 :
b000000000001000 ;
b0000000000001010 J
1V
b000000000001010 Z
b000000000001001 [
#31
0V
#32
b0000000000001010 %
b0000000000001001 -
b0000000000001001 :
b000000000001001 ;
b0000000000001011 J
1V
b000000000001011 Z
b000000000001010 [
#33
0V
#34
b0000000000001011 %
b0000000000001010 -
b0000000000001010 :
b000000000001010 ;
b0000000000001100 J
1V
b000000000001100 Z
b000000000001011 [
#35
0V
#36
b0000000000001100 %
b0000000000001011 -
b0000000000001011 :
b000000000001011 ;
b0000000000001101 J
1V
b000000000001101 Z
b000000000001100 [
#37
0V
#38
b0000000000001101 %
b0000000000001100 -
b0000000000001100 :
b000000000001100 ;
b0000000000001110 J
1V
b000000000001110 Z
b000000000001101 [
#39
0V
#40
b0000000000001110 %
b0000000000001101 -
b0000000000001101 :
b000000000001101 ;
b0000000000001111 J
1V
b000000000001111 Z
b000000000001110 [
#41
0V
#42
b0000000000001111 %
b0000000000001110 -
b0000000000001110 :
b000000000001110 ;
b0000000000010000 J
1V
b000000000010000 Z
b000000000001111 [
#43
0V
#44
b0000000000010000 %
b0000000000001111 -
b0000000000001111 :
b000000000001111 ;
b0000000000010001 J
1V
b000000000010001 Z
b000000000010000 [
#45
0V
#46
b0000000000010001 %
b0000000000010000 -
b0000000000010000 :
b000000000010000 ;
b0000000000010010 J
1V
b000000000010010 Z
b000000000010001 [
#47
0V
#48
b0000000000010010 %
b0000000000010001 -
b0000000000010001 :
b000000000010001 ;
b0000000000010011 J
1V
b000000000010011 Z
b000000000010010 [
#49
0V
#50
b0000000000010011 %
b0000000000010010 -
b0000000000010010 :
b000000000010010 ;
b0000000000010100 J
1V
b000000000010100 Z
b000000000010011 [
#51
0V
#52
b0000000000010100 %
b0000000000010011 -
b0000000000010011 :
b000000000010011 ;
b0000000000010101 J
1V
b000000000010101 Z
b000000000010100 [
#53
0V
#54
b0000000000010101 %
b0000000000010100 -
b0000000000010100 :
b000000000010100 ;
b0000000000010110 J
1V
b000000000010110 Z
b000000000010101 [
#55
0V
#56
b0000000000010110 %
b0000000000010101 -
b0000000000010101 :
b000000000010101 ;
b0000000000010111 J
1V
b000000000010111 Z
b000000000010110 [
#57
0V
#58
b0000000000010111 %
b0000000000010110 -
b0000000000010110 :
b000000000010110 ;
b0000000000011000 J
1V
b000000000011000 Z
b000000000010111 [
#59
0V
#60
b0000000000011000 %
b0000000000010111 -
b0000000000010111 :
b000000000010111 ;
b0000000000011001 J
1V
b000000000011001 Z
b000000000011000 [
#61
0V
#62
b0000000000011001 %
b0000000000011000 -
b0000000000011000 :
b000000000011000 ;
b0000000000011010 J
1V
b000000000011010 Z
b000000000011001 [
#63
0V
#64
b0000000000011010 %
b0000000000011001 -
b0000000000011001 :
b000000000011001 ;
b0000000000011011 J
1V
b000000000011011 Z
b000000000011010 [
#65
0V
#66
b0000000000011011 %
b0000000000011010 -
b0000000000011010 :
b000000000011010 ;
b0000000000011100 J
1V
b000000000011100 Z
b000000000011011 [
#67
0V
#68
b0000000000011100 %
b0000000000011011 -
b0000000000011011 :
b000000000011011 ;
b0000000000011101 J
1V
b000000000011101 Z
b000000000011100 [
#69
0V
#70
b0000000000011101 %
b0000000000011100 -
b0000000000011100 :
b000000000011100 ;
b0000000000011110 J
1V
b000000000011110 Z
b000000000011101 [
#71
0V
#72
b0000000000011110 %
b0000000000011101 -
b0000000000011101 :
b000000000011101 ;
b0000000000011111 J
1V
b000000000011111 Z
b000000000011110 [
#73
0V
#74
b0000000000011111 %
b0000000000011110 -
b0000000000011110 :
b000000000011110 ;
b0000000000100000 J
1V
b000000000100000 Z
b000000000011111 [
#75
0V
#76
b0000000000100000 %
b0000000000011111 -
b0000000000011111 :
b000000000011111 ;
b0000000000100001 J
1V
b000000000100001 Z
b000000000100000 [
#77
0V
#78
b0000000000100001 %
b0000000000100000 -
b0000000000100000 :
b000000000100000 ;
b0000000000100010 J
1V
b000000000100010 Z
b000000000100001 [
#79
0V
#80
b0000000000100010 %
b0000000000100001 -
b0000000000100001 :
b000000000100001 ;
b0000000000100011 J
1V
b000000000100011 Z
b000000000100010 [
#81
0V
#82
b0000000000100011 %
b0000000000100010 -
b0000000000100010 :
b000000000100010 ;
b0000000000100100 J
1V
b000000000100100 Z
b000000000100011 [
#83
0V
#84
b0000000000100100 %
b0000000000100011 -
b0000000000100011 :
b000000000100011 ;
b0000000000100101 J
1V
b000000000100101 Z
b000000000100100 [
#85
0V
#86
b0000000000100101 %
b0000000000100100 -
b0000000000100100 :
b000000000100100 ;
b0000000000100110 J
1V
b000000000100110 Z
b000000000100101 [
#87
0V
#88
b0000000000100110 %
b0000000000100101 -
b0000000000100101 :
b000000000100101 ;
b0000000000100111 J
1V
b000000000100111 Z
b000000000100110 [
#89
0V
#90
b0000000000100111 %
b0000000000100110 -
b0000000000100110 :
b000000000100110 ;
b0000000000101000 J
1V
b000000000101000 Z
b000000000100111 [
#91
0V
#92
b0000000000101000 %
b0000000000100111 -
b0000000000100111 :
b000000000100111 ;
b0000000000101001 J
1V
b000000000101001 Z
b000000000101000 [
#93
0V
#94
b0000000000101001 %
b0000000000101000 -
b0000000000101000 :
b000000000101000 ;
b0000000000101010 J
1V
b000000000101010 Z
b000000000101001 [
#95
0V
#96
b0000000000101010 %
b0000000000101001 -
b0000000000101001 :
b000000000101001 ;
b0000000000101011 J
1V
b000000000101011 Z
b000000000101010 [
#97
0V
#98
b0000000000101011 %
b0000000000101010 -
b0000000000101010 :
b000000000101010 ;
b0000000000101100 J
1V
b000000000101100 Z
b000000000101011 [
#99
0V
#100
b0000000000101100 %
b0000000000101011 -
b0000000000101011 :
b000000000101011 ;
b0000000000101101 J
1V
b000000000101101 Z
b000000000101100 [
#101
0V
#102
b0000000000101101 %
b0000000000101100 -
b0000000000101100 :
b000000000101100 ;
b0000000000101110 J
1V
b000000000101110 Z
b000000000101101 [
#103
0V
#104
b0000000000101110 %
b0000000000101101 -
b0000000000101101 :
b000000000101101 ;
b0000000000101111 J
1V
b000000000101111 Z
b000000000101110 [
#105
0V
#106
b0000000000101111 %
b0000000000101110 -
b0000000000101110 :
b000000000101110 ;
b0000000000110000 J
1V
b000000000110000 Z
b000000000101111 [
#107
0V
#108
b0000000000110000 %
b0000000000101111 -
b0000000000101111 :
b000000000101111 ;
b0000000000110001 J
1V
b000000000110001 Z
b000000000110000 [
#109
0V
#110
b0000000000110001 %
b0000000000110000 -
b0000000000110000 :
b000000000110000 ;
b0000000000110010 J
1V
b000000000110010 Z
b000000000110001 [
#111
0V
#112
b0000000000110010 %
b0000000000110001 -
b0000000000110001 :
b000000000110001 ;
b0000000000110011 J
1V
b000000000110011 Z
b000000000110010 [
#113
0V
#114
b0000000000110011 %
b0000000000110010 -
b0000000000110010 :
b000000000110010 ;
b0000000000110100 J
1V
b000000000110100 Z
b000000000110011 [
#115
0V
#116
b0000000000110100 %
b0000000000110011 -
b0000000000110011 :
b000000000110011 ;
b0000000000110101 J
1V
b000000000110101 Z
b000000000110100 [
#117
0V
#118
b0000000000110101 %
b0000000000110100 -
b0000000000110100 :
b000000000110100 ;
b0000000000110110 J
1V
b000000000110110 Z
b000000000110101 [
#119
0V
#120
b0000000000110110 %
b0000000000110101 -
b0000000000110101 :
b000000000110101 ;
b0000000000110111 J
1V
b000000000110111 Z
b000000000110110 [
#121
0V
#122
b0000000000110111 %
b0000000000110110 -
b0000000000110110 :
b000000000110110 ;
b0000000000111000 J
1V
b000000000111000 Z
b000000000110111 [
#123
0V
#124
b0000000000111000 %
b0000000000110111 -
b0000000000110111 :
b000000000110111 ;
b0000000000111001 J
1V
b000000000111001 Z
b000000000111000 [
#125
0V
#126
b0000000000111001 %
b0000000000111000 -
b0000000000111000 :
b000000000111000 ;
b0000000000111010 J
1V
b000000000111010 Z
b000000000111001 [
#127
0V
#128
b0000000000111010 %
b0000000000111001 -
b0000000000111001 :
b000000000111001 ;
b0000000000111011 J
1V
b000000000111011 Z
b000000000111010 [
#129
0V
#130
b0000000000111011 %
b0000000000111010 -
b0000000000111010 :
b000000000111010 ;
b0000000000111100 J
1V
b000000000111100 Z
b000000000111011 [
#131
0V
#132
b0000000000111100 %
b0000000000111011 -
b0000000000111011 :
b000000000111011 ;
b0000000000111101 J
1V
b000000000111101 Z
b000000000111100 [
#133
0V
#134
b0000000000111101 %
b0000000000111100 -
b0000000000111100 :
b000000000111100 ;
b0000000000111110 J
1V
b000000000111110 Z
b000000000111101 [
#135
0V
#136
b0000000000111110 %
b0000000000111101 -
b0000000000111101 :
b000000000111101 ;
b0000000000111111 J
1V
b000000000111111 Z
b000000000111110 [
#137
0V
#138
b0000000000111111 %
b0000000000111110 -
b0000000000111110 :
b000000000111110 ;
b0000000001000000 J
1V
b000000001000000 Z
b000000000111111 [
#139
0V
#140
b0000000001000000 %
b0000000000111111 -
b0000000000111111 :
b000000000111111 ;
b0000000001000001 J
1V
b000000001000001 Z
b000000001000000 [
#141
0V
#142
b0000000001000001 %
b0000000001000000 -
b0000000001000000 :
b000000001000000 ;
b0000000001000010 J
1V
b000000001000010 Z
b000000001000001 [
#143
0V
#144
b0000000001000010 %
b0000000001000001 -
b0000000001000001 :
b000000001000001 ;
b0000000001000011 J
1V
b000000001000011 Z
b000000001000010 [
#145
0V
#146
b0000000001000011 %
b0000000001000010 -
b0000000001000010 :
b000000001000010 ;
b0000000001000100 J
1V
b000000001000100 Z
b000000001000011 [
#147
0V
#148
b0000000001000100 %
b0000000001000011 -
b0000000001000011 :
b000000001000011 ;
b0000000001000101 J
1V
b000000001000101 Z
b000000001000100 [
#149
0V
#150
b0000000001000101 %
b0000000001000100 -
b0000000001000100 :
b000000001000100 ;
b0000000001000110 J
1V
b000000001000110 Z
b000000001000101 [
#151
0V
#152
b0000000001000110 %
b0000000001000101 -
b0000000001000101 :
b000000001000101 ;
b0000000001000111 J
1V
b000000001000111 Z
b000000001000110 [
#153
0V
#154
b0000000001000111 %
b0000000001000110 -
b0000000001000110 :
b000000001000110 ;
b0000000001001000 J
1V
b000000001001000 Z
b000000001000111 [
#155
0V
#156
b0000000001001000 %
b0000000001000111 -
b0000000001000111 :
b000000001000111 ;
b0000000001001001 J
1V
b000000001001001 Z
b000000001001000 [
#157
0V
#158
b0000000001001001 %
b0000000001001000 -
b0000000001001000 :
b000000001001000 ;
b0000000001001010 J
1V
b000000001001010 Z
b000000001001001 [
#159
0V
#160
b0000000001001010 %
b0000000001001001 -
b0000000001001001 :
b000000001001001 ;
b0000000001001011 J
1V
b000000001001011 Z
b000000001001010 [
#161
0V
#162
b0000000001001011 %
b0000000001001010 -
b0000000001001010 :
b000000001001010 ;
b0000000001001100 J
1V
b000000001001100 Z
b000000001001011 [
#163
0V
#164
b0000000001001100 %
b0000000001001011 -
b0000000001001011 :
b000000001001011 ;
b0000000001001101 J
1V
b000000001001101 Z
b000000001001100 [
#165
0V
#166
b0000000001001101 %
b0000000001001100 -
b0000000001001100 :
b000000001001100 ;
b0000000001001110 J
1V
b000000001001110 Z
b000000001001101 [
#167
0V
#168
b0000000001001110 %
b0000000001001101 -
b0000000001001101 :
b000000001001101 ;
b0000000001001111 J
1V
b000000001001111 Z
b000000001001110 [
#169
0V
#170
b0000000001001111 %
b0000000001001110 -
b0000000001001110 :
b000000001001110 ;
b0000000001010000 J
1V
b000000001010000 Z
b000000001001111 [
#171
0V
#172
b0000000001010000 %
b0000000001001111 -
b0000000001001111 :
b000000001001111 ;
b0000000001010001 J
1V
b000000001010001 Z
b000000001010000 [
#173
0V
#174
b0000000001010001 %
b0000000001010000 -
b0000000001010000 :
b000000001010000 ;
b0000000001010010 J
1V
b000000001010010 Z
b000000001010001 [
#175
0V
#176
b0000000001010010 %
b0000000001010001 -
b0000000001010001 :
b000000001010001 ;
b0000000001010011 J
1V
b000000001010011 Z
b000000001010010 [
#177
0V
#178
b0000000001010011 %
b0000000001010010 -
b0000000001010010 :
b000000001010010 ;
b0000000001010100 J
1V
b000000001010100 Z
b000000001010011 [
#179
0V
#180
b0000000001010100 %
b0000000001010011 -
b0000000001010011 :
b000000001010011 ;
b0000000001010101 J
1V
b000000001010101 Z
b000000001010100 [
#181
0V
#182
b0000000001010101 %
b0000000001010100 -
b0000000001010100 :
b000000001010100 ;
b0000000001010110 J
1V
b000000001010110 Z
b000000001010101 [
#183
0V
#184
b0000000001010110 %
b0000000001010101 -
b0000000001010101 :
b000000001010101 ;
b0000000001010111 J
1V
b000000001010111 Z
b000000001010110 [
#185
0V
#186
b0000000001010111 %
b0000000001010110 -
b0000000001010110 :
b000000001010110 ;
b0000000001011000 J
1V
b000000001011000 Z
b000000001010111 [
#187
0V
#188
b0000000001011000 %
b0000000001010111 -
b0000000001010111 :
b000000001010111 ;
b0000000001011001 J
1V
b000000001011001 Z
b000000001011000 [
#189
0V
#190
b0000000001011001 %
b0000000001011000 -
b0000000001011000 :
b000000001011000 ;
b0000000001011010 J
1V
b000000001011010 Z
b000000001011001 [
#191
0V
#192
b0000000001011010 %
b0000000001011001 -
b0000000001011001 :
b000000001011001 ;
b0000000001011011 J
1V
b000000001011011 Z
b000000001011010 [
#193
0V
#194
b0000000001011011 %
b0000000001011010 -
b0000000001011010 :
b000000001011010 ;
b0000000001011100 J
1V
b000000001011100 Z
b000000001011011 [
#195
0V
#196
b0000000001011100 %
b0000000001011011 -
b0000000001011011 :
b000000001011011 ;
b0000000001011101 J
1V
b000000001011101 Z
b000000001011100 [
#197
0V
#198
b0000000001011101 %
b0000000001011100 -
b0000000001011100 :
b000000001011100 ;
b0000000001011110 J
1V
b000000001011110 Z
b000000001011101 [
#199
0V
#200
b0000000001011110 %
b0000000001011101 -
b0000000001011101 :
b000000001011101 ;
b0000000001011111 J
1V
b000000001011111 Z
b000000001011110 [
#201
0V
#202
b0000000001011111 %
b0000000001011110 -
b0000000001011110 :
b000000001011110 ;
b0000000001100000 J
1V
b000000001100000 Z
b000000001011111 [
#203
0V
#204
b0000000001100000 %
b0000000001011111 -
b0000000001011111 :
b000000001011111 ;
b0000000001100001 J
1V
b000000001100001 Z
b000000001100000 [
#205
0V
#206
b0000000001100001 %
b0000000001100000 -
b0000000001100000 :
b000000001100000 ;
b0000000001100010 J
1V
b000000001100010 Z
b000000001100001 [
#207
0V
#208
b0000000001100010 %
b0000000001100001 -
b0000000001100001 :
b000000001100001 ;
b0000000001100011 J
1V
b000000001100011 Z
b000000001100010 [
#209
0V
#210
b0000000001100011 %
b0000000001100010 -
b0000000001100010 :
b000000001100010 ;
b0000000001100100 J
1V
b000000001100100 Z
b000000001100011 [
#211
0V
#212
b0000000001100100 %
b0000000001100011 -
b0000000001100011 :
b000000001100011 ;
b0000000001100101 J
1V
b000000001100101 Z
b000000001100100 [
#213
0V
#214
b0000000001100101 %
b0000000001100100 -
b0000000001100100 :
b000000001100100 ;
b0000000001100110 J
1V
b000000001100110 Z
b000000001100101 [
#215
0V
#216
b0000000001100110 %
b0000000001100101 -
b0000000001100101 :
b000000001100101 ;
b0000000001100111 J
1V
b000000001100111 Z
b000000001100110 [
#217
0V
#218
b0000000001100111 %
b0000000001100110 -
b0000000001100110 :
b000000001100110 ;
b0000000001101000 J
1V
b000000001101000 Z
b000000001100111 [
#219
0V
#220
b0000000001101000 %
b0000000001100111 -
b0000000001100111 :
b000000001100111 ;
b0000000001101001 J
1V
b000000001101001 Z
b000000001101000 [
#221
0V
#222
b0000000001101001 %
b0000000001101000 -
b0000000001101000 :
b000000001101000 ;
b0000000001101010 J
1V
b000000001101010 Z
b000000001101001 [
#223
0V
#224
b0000000001101010 %
b0000000001101001 -
b0000000001101001 :
b000000001101001 ;
b0000000001101011 J
1V
b000000001101011 Z
b000000001101010 [
#225
0V
#226
b0000000001101011 %
b0000000001101010 -
b0000000001101010 :
b000000001101010 ;
b0000000001101100 J
1V
b000000001101100 Z
b000000001101011 [
#227
0V
#228
b0000000001101100 %
b0000000001101011 -
b0000000001101011 :
b000000001101011 ;
b0000000001101101 J
1V
b000000001101101 Z
b000000001101100 [
#229
0V
#230
b0000000001101101 %
b0000000001101100 -
b0000000001101100 :
b000000001101100 ;
b0000000001101110 J
1V
b000000001101110 Z
b000000001101101 [
#231
0V
#232
b0000000001101110 %
b0000000001101101 -
b0000000001101101 :
b000000001101101 ;
b0000000001101111 J
1V
b000000001101111 Z
b000000001101110 [
#233
0V
#234
b0000000001101111 %
b0000000001101110 -
b0000000001101110 :
b000000001101110 ;
b0000000001110000 J
1V
b000000001110000 Z
b000000001101111 [
#235
0V
#236
b0000000001110000 %
b0000000001101111 -
b0000000001101111 :
b000000001101111 ;
b0000000001110001 J
1V
b000000001110001 Z
b000000001110000 [
#237
0V
#238
b0000000001110001 %
b0000000001110000 -
b0000000001110000 :
b000000001110000 ;
b0000000001110010 J
1V
b000000001110010 Z
b000000001110001 [
#239
0V
#240
b0000000001110010 %
b0000000001110001 -
b0000000001110001 :
b000000001110001 ;
b0000000001110011 J
1V
b000000001110011 Z
b000000001110010 [
#241
0V
#242
b0000000001110011 %
b0000000001110010 -
b0000000001110010 :
b000000001110010 ;
b0000000001110100 J
1V
b000000001110100 Z
b000000001110011 [
#243
0V
#244
b0000000001110100 %
b0000000001110011 -
b0000000001110011 :
b000000001110011 ;
b0000000001110101 J
1V
b000000001110101 Z
b000000001110100 [
#245
0V
#246
b0000000001110101 %
b0000000001110100 -
b0000000001110100 :
b000000001110100 ;
b0000000001110110 J
1V
b000000001110110 Z
b000000001110101 [
#247
0V
#248
b0000000001110110 %
b0000000001110101 -
b0000000001110101 :
b000000001110101 ;
b0000000001110111 J
1V
b000000001110111 Z
b000000001110110 [
#249
0V
#250
b0000000001110111 %
b0000000001110110 -
b0000000001110110 :
b000000001110110 ;
b0000000001111000 J
1V
b000000001111000 Z
b000000001110111 [
#251
0V
#252
b0000000001111000 %
b0000000001110111 -
b0000000001110111 :
b000000001110111 ;
b0000000001111001 J
1V
b000000001111001 Z
b000000001111000 [
#253
0V
#254
b0000000001111001 %
b0000000001111000 -
b0000000001111000 :
b000000001111000 ;
b0000000001111010 J
1V
b000000001111010 Z
b000000001111001 [
#255
0V
#256
b0000000001111010 %
b0000000001111001 -
b0000000001111001 :
b000000001111001 ;
b0000000001111011 J
1V
b000000001111011 Z
b000000001111010 [
#257
0V
#258
b0000000001111011 %
b0000000001111010 -
b0000000001111010 :
b000000001111010 ;
b0000000001111100 J
1V
b000000001111100 Z
b000000001111011 [
#259
0V
#260
b0000000001111100 %
b0000000001111011 -
b0000000001111011 :
b000000001111011 ;
b0000000001111101 J
1V
b000000001111101 Z
b000000001111100 [
#261
0V
#262
b0000000001111101 %
b0000000001111100 -
b0000000001111100 :
b000000001111100 ;
b0000000001111110 J
1V
b000000001111110 Z
b000000001111101 [
#263
0V
#264
b0000000001111110 %
b0000000001111101 -
b0000000001111101 :
b000000001111101 ;
b0000000001111111 J
1V
b000000001111111 Z
b000000001111110 [
#265
0V
#266
b0000000001111111 %
b0000000001111110 -
b0000000001111110 :
b000000001111110 ;
b0000000010000000 J
1V
b000000010000000 Z
b000000001111111 [
#267
0V
#268
b0000000010000000 %
b0000000001111111 -
b0000000001111111 :
b000000001111111 ;
b0000000010000001 J
1V
b000000010000001 Z
b000000010000000 [
#269
0V
#270
b0000000010000001 %
b0000000010000000 -
b0000000010000000 :
b000000010000000 ;
b0000000010000010 J
1V
b000000010000010 Z
b000000010000001 [
#271
0V
#272
b0000000010000010 %
b0000000010000001 -
b0000000010000001 :
b000000010000001 ;
b0000000010000011 J
1V
b000000010000011 Z
b000000010000010 [
#273
0V
#274
b0000000010000011 %
b0000000010000010 -
b0000000010000010 :
b000000010000010 ;
b0000000010000100 J
1V
b000000010000100 Z
b000000010000011 [
#275
0V
#276
b0000000010000100 %
b0000000010000011 -
b0000000010000011 :
b000000010000011 ;
b0000000010000101 J
1V
b000000010000101 Z
b000000010000100 [
#277
0V
