extensions/waveform-viewer-voltai/artifacts/pages_build/xx_1.vcd
$version Generated by VerilatedVcd $end
$date Sun 07 Jan 2024 07:36:45 PM CET $end
$timescale 1s $end

 $scope module TOP $end
  $var wire  1 & clk $end
  $var wire  1 $ io_x $end
  $var wire  1 # io_y $end
  $var wire  1 % io_z $end
  $var wire  1 ' reset $end
  $scope module Foobar $end
   $var wire  1 & clk $end
   $var wire  1 $ io_x $end
   $var wire  1 # io_y $end
   $var wire  1 % io_z $end
   $var wire  1 ' reset $end
  $upscope $end
 $upscope $end
$enddefinitions $end


#0
1#
1$
0%
0&
0'
#10
0#
1%
#20
1#
0$
#30
0#
0%
#40
1$
1%
#50
#60
1#
0$
#70
#80
1$
0%
#90
0$
1%
#100
1$
0%
#110
0#
1%
#120
1#
0%
#130
0#
1%
#140
0$
0%
#150
#160
#170
#180
1#
1%
