extensions/waveform-viewer-voltai/artifacts/pages_build/xx_2.vcd
$version Generated by VerilatedVcd $end
$date Sun 07 Jan 2024 07:37:18 PM CET $end
$timescale 1s $end

 $scope module TOP $end
  $var wire  1 % clk $end
  $var wire  1 # io_y $end
  $var wire  1 $ io_z $end
  $var wire  1 & reset $end
  $scope module Foobar $end
   $var wire  1 % clk $end
   $var wire  1 # io_y $end
   $var wire  1 $ io_z $end
   $var wire  1 & reset $end
  $upscope $end
 $upscope $end
$enddefinitions $end


#0
1#
1$
1%
0&
#10
#20
#30
#40
#50
0#
0$
#60
1#
1$
#70
#80
0#
0$
#90
#100
1#
1$
#110
0#
0$
#120
#130
1#
1$
#140
0#
0$
#150
#160
#170
#180
1#
1$
